%YAML 1.1
%TAG !u! tag:unity3d.com,2011:
--- !u!21 &2100000
Material:
  serializedVersion: 6
  m_ObjectHideFlags: 0
  m_PrefabParentObject: {fileID: 0}
  m_PrefabInternal: {fileID: 0}
  m_Name: Water4ExampleSimple
  m_Shader: {fileID: 4800000, guid: 8aaff0751054e4a9cb4642d01eaf5be9, type: 3}
  m_ShaderKeywords: 
  m_LightmapFlags: 5
  m_CustomRenderQueue: -1
  stringTagMap: {}
  m_SavedProperties:
    serializedVersion: 2
    m_TexEnvs:
      data:
        first:
          name: _MainTex
        second:
          m_Texture: {fileID: 2800000, guid: e6f8288974c664a309d6c66de636978c, type: 3}
          m_Scale: {x: 1, y: 1}
          m_Offset: {x: 0, y: 0}
      data:
        first:
          name: _BumpMap
        second:
          m_Texture: {fileID: 2800000, guid: fb6566c21f717904f83743a5a76dd0b0, type: 3}
          m_Scale: {x: 1, y: 1}
          m_Offset: {x: 0, y: 0}
      data:
        first:
          name: _ReflectionTex
        second:
          m_Texture: {fileID: 0}
          m_Scale: {x: 1, y: 1}
          m_Offset: {x: 0, y: 0}
      data:
        first:
          name: _RefractionTex
        second:
          m_Texture: {fileID: 0}
          m_Scale: {x: 1, y: 1}
          m_Offset: {x: 0, y: 0}
      data:
        first:
          name: _ShoreTex
        second:
          m_Texture: {fileID: 2800000, guid: 36dd0b22da8874ed38075789055ca664, type: 3}
          m_Scale: {x: 1, y: 1}
          m_Offset: {x: 0, y: 0}
      data:
        first:
          name: _WavesTex
        second:
          m_Texture: {fileID: 0}
          m_Scale: {x: 1, y: 1}
          m_Offset: {x: 0, y: 0}
      data:
        first:
          name: _DisplacementHeightMap
        second:
          m_Texture: {fileID: 2800000, guid: a782b26d6436b48d9882906b9f8ca31a, type: 2}
          m_Scale: {x: 1, y: 1}
          m_Offset: {x: 0, y: 0}
      data:
        first:
          name: _SecondDisplacementHeightMap
        second:
          m_Texture: {fileID: 2800000, guid: 4facc21e08e3a43ed97c930f7dae6e7b, type: 2}
          m_Scale: {x: 1, y: 1}
          m_Offset: {x: 0, y: 0}
      data:
        first:
          name: _ThirdDisplacementHeightMap
        second:
          m_Texture: {fileID: 2800000, guid: dc30b984e8e3c4cdfb38d5fceb411602, type: 2}
          m_Scale: {x: 1, y: 1}
          m_Offset: {x: 0, y: 0}
      data:
        first:
          name: _CubeTex
        second:
          m_Texture: {fileID: 0}
          m_Scale: {x: 1, y: 1}
          m_Offset: {x: 0, y: 0}
    m_Floats:
      data:
        first:
          name: _Shininess
        second: 349.13794
      data:
        first:
          name: _FresnelScale
        second: 4
      data:
        first:
          name: _GerstnerIntensity
        second: 0.47
      data:
        first:
          name: _HeightDisplacement
        second: 2.3370318
      data:
        first:
          name: _NormalsDisplacement
        second: 72.72728
    m_Colors:
      data:
        first:
          name: _Color
        second: {r: 1, g: 1, b: 1, a: 1}
      data:
        first:
          name: _DistortParams
        second: {r: 1.0285715, g: 0.20187221, b: 0.91, a: -0.37}
      data:
        first:
          name: _InvFadeParemeter
        second: {r: 3, g: 0.08562102, b: 0.09414239, a: 0.14}
      data:
        first:
          name: _AnimationTiling
        second: {r: 0.4, g: 0.39099997, b: 0.56, a: 0.7}
      data:
        first:
          name: _AnimationDirection
        second: {r: 2, g: 1, b: -1, a: 1}
      data:
        first:
          name: _BumpTiling
        second: {r: 0.32, g: 0.32, b: 0.08, a: 0.16}
      data:
        first:
          name: _BumpDirection
        second: {r: 1.76, g: 30, b: 20, a: -20}
      data:
        first:
          name: _BaseColor
        second: {r: 0, g: 0.16810337, b: 0.28676468, a: 0.5058824}
      data:
        first:
          name: _ReflectionColor
        second: {r: 0.21323532, g: 0.75900894, b: 1, a: 0.47058824}
      data:
        first:
          name: _SpecularColor
        second: {r: 1, g: 0.9524886, b: 0.8455882, a: 1}
      data:
        first:
          name: _WorldLightDir
        second: {r: -0.60021615, g: -0.1735908, b: -0.7807739, a: 0}
      data:
        first:
          name: _Foam
        second: {r: 0.3275862, g: 0.7471264, b: 0, a: 0}
      data:
        first:
          name: _GAmplitude
        second: {r: 0.03, g: 0.02, b: 0.025, a: 0.025}
      data:
        first:
          name: _GFrequency
        second: {r: 0.5, g: 0.25, b: 0.6, a: 0.245}
      data:
        first:
          name: _GSteepness
        second: {r: 8.51, g: 7.83, b: 1, a: 1}
      data:
        first:
          name: _GSpeed
        second: {r: 4, g: 2, b: 1, a: 1}
      data:
        first:
          name: _GDirectionAB
        second: {r: 0.085, g: 0.03, b: 0.025, a: 0.025}
      data:
        first:
          name: _GDirectionCD
        second: {r: -0.03, g: -0.09, b: 0.05, a: 0.05}
      data:
        first:
          name: _DepthColor
        second: {r: 0.29811764, g: 0.36611718, b: 0.39552242, a: 0.34509805}
      data:
        first:
          name: _RefractionFog
        second: {r: 0.8681778, g: 0.8797176, b: 0.8880597, a: 1}
--- !u!1002 &2100001
EditorExtensionImpl:
  serializedVersion: 6
